<?xml version="1.0" encoding="UTF-8"?>
<session version="1.0">
<refactoring comment="Rename type &apos;secMax.LeerArchivo&apos; to &apos;SecuenciaMaxima&apos;&#x0A;- Original project: &apos;Archivos&apos;&#x0A;- Original element: &apos;secMax.LeerArchivo&apos;&#x0A;- Renamed element: &apos;secMax.SecuenciaMaxima&apos;&#x0A;- Update references to refactored element&#x0A;- Update textual occurrences in comments and strings" description="Rename type &apos;LeerArchivo&apos;" flags="589830" id="org.eclipse.jdt.ui.rename.type" input="/src&lt;secMax{LeerArchivo.java[LeerArchivo" matchStrategy="1" name="SecuenciaMaxima" qualified="false" references="true" similarDeclarations="false" stamp="1539903760246" textual="false" version="1.0"/>
</session>